﻿{
  "swagger": "2.0",
  "info": {
    "version": "v1.0",
    "title": "Salud Plus Core API",
    "description": "Tegett Todos los derechos reservados 2019"
  },
  "schemes": [ "http", "https" ],
  "paths": {
    "/api/auth/Login": {
      "post": {
        "tags": [ "Auth" ],
        "summary": "Generar Token de acceso",
        "operationId": "Login",
        "consumes": [ "application/json" ],
        "produces": [ "application/json", "application/xml" ],
        "parameters": [
          {
            "name": "objUser",
            "in": "body",
            "description": "usuario y contraseña",
            "required": false,
            "schema": { "$ref": "#/definitions/SaludPlusAPI.Models.User" }
          }
        ],
        "responses": {
          "200": {
            "description": "Success",
            "schema": { "$ref": "#/definitions/SaludPlusAPI.Models.UserInfo" }
          }
        }
      }
    },
    "/api/auth/RefreshToken": {
      "post": {
        "tags": [ "Auth" ],
        "summary": "Refrescar token",
        "operationId": "RefreshToken",
        "consumes": [ "application/json" ],
        "produces": [ "application/json", "application/xml" ],
        "parameters": [
          {
            "name": "refresh",
            "in": "body",
            "description": "",
            "required": false,
            "schema": { "$ref": "#/definitions/SaludPlusAPI.Models.jwt.RefreshToken" }
          }
        ],
        "responses": {
          "200": {
            "description": "Success",
            "schema": { "$ref": "#/definitions/SaludPlusAPI.Models.jwt.RefreshTokenInfo" }
          }
        }
      }
    },
    "/api/auth/RecoveryPassword": {
      "post": {
        "tags": [ "Auth" ],
        "summary": "Recuperar contraseña",
        "operationId": "RecoveryPassword",
        "consumes": [ "application/json" ],
        "produces": [ "application/json", "application/xml" ],
        "parameters": [
          {
            "name": "email",
            "in": "query",
            "description": "Correo electrónico",
            "required": false,
            "type": "string"
          }
        ],
        "responses": {
          "200": {
            "description": "Success",
            "schema": { "type": "boolean" }
          }
        }
      }
    },
    "/api/auth/ChangePassword": {
      "post": {
        "tags": [ "Auth" ],
        "summary": "Cambiar contraseña",
        "operationId": "ChangePassword",
        "consumes": [ "application/json" ],
        "produces": [ "application/json", "application/xml" ],
        "parameters": [
          {
            "name": "changePassword",
            "in": "body",
            "description": "",
            "required": false,
            "schema": { "$ref": "#/definitions/SaludPlusAPI.Models.ChangePassword" }
          }
        ],
        "responses": {
          "200": {
            "description": "Success",
            "schema": { "type": "boolean" }
          }
        }
      }
    },
    "/api/caracteristicas": {
      "get": {
        "tags": [ "Caracteristicas" ],
        "summary": "Obtener característica por usuario",
        "operationId": "ListadoCaracteristicasPorUsuario",
        "consumes": [],
        "produces": [ "application/json", "application/xml" ],
        "parameters": [],
        "responses": {
          "200": {
            "description": "Success",
            "schema": {
              "uniqueItems": false,
              "type": "array",
              "items": { "$ref": "#/definitions/SaludPlusAPI.Models.LCaracteristicasExt" }
            }
          }
        }
      }
    },
    "/api/caracteristicas/{caracteristica_id}": {
      "get": {
        "tags": [ "Caracteristicas" ],
        "summary": "Obtener caracteristica por id",
        "operationId": "ObtenerRecurso",
        "consumes": [],
        "produces": [ "application/json", "application/xml" ],
        "parameters": [
          {
            "name": "caracteristica_id",
            "in": "path",
            "description": "Id de recurso",
            "required": true,
            "type": "integer",
            "format": "int32"
          }
        ],
        "responses": {
          "200": {
            "description": "Success",
            "schema": { "$ref": "#/definitions/SaludPlusAPI.DataBase.Models.LCaracteristicas" }
          }
        }
      }
    },
    "/api/caracteristicas/perfil/{perfil_id}": {
      "get": {
        "tags": [ "Caracteristicas" ],
        "summary": "Obtener característica por perfil",
        "operationId": "ListadoCaracteristicasPorPerfil",
        "consumes": [],
        "produces": [ "application/json", "application/xml" ],
        "parameters": [
          {
            "name": "perfil_id",
            "in": "path",
            "description": "Id del perfil",
            "required": true,
            "type": "integer",
            "format": "int32"
          }
        ],
        "responses": {
          "200": {
            "description": "Success",
            "schema": {
              "uniqueItems": false,
              "type": "array",
              "items": { "$ref": "#/definitions/SaludPlusAPI.DataBase.Models.LCaracteristicas" }
            }
          }
        }
      }
    },
    "/api/caracteristicas/recurso/{recurso_id}": {
      "get": {
        "tags": [ "Caracteristicas" ],
        "summary": "Obtener característica por id de recurso",
        "operationId": "ListadoCaracteristicasPorRecurso",
        "consumes": [],
        "produces": [ "application/json", "application/xml" ],
        "parameters": [
          {
            "name": "recurso_id",
            "in": "path",
            "description": "Id del perfil",
            "required": true,
            "type": "integer",
            "format": "int32"
          }
        ],
        "responses": {
          "200": {
            "description": "Success",
            "schema": {
              "uniqueItems": false,
              "type": "array",
              "items": { "$ref": "#/definitions/SaludPlusAPI.DataBase.Models.LCaracteristicas" }
            }
          }
        }
      }
    },
    "/api/entidades/ListaEntidades/{idInstitucion}": {
      "get": {
        "tags": [ "Entidades" ],
        "summary": "Listado de entidades",
        "operationId": "ListaEntidades",
        "consumes": [],
        "produces": [ "application/json", "application/xml" ],
        "parameters": [
          {
            "name": "idInstitucion",
            "in": "path",
            "required": true,
            "type": "integer",
            "format": "int32"
          }
        ],
        "responses": {
          "200": {
            "description": "Success",
            "schema": {
              "uniqueItems": false,
              "type": "array",
              "items": { "$ref": "#/definitions/SaludPlusAPI.DataBase.Models.FacturacionEntidades" }
            }
          }
        }
      }
    },
    "/api/entidades/Entidad/{idEntidad}/{idInstitucion}": {
      "get": {
        "tags": [ "Entidades" ],
        "summary": "Obtener una entidad por su id",
        "operationId": "ObtenerEntidad",
        "consumes": [],
        "produces": [ "application/json", "application/xml" ],
        "parameters": [
          {
            "name": "idEntidad",
            "in": "path",
            "required": true,
            "type": "integer",
            "format": "int32"
          },
          {
            "name": "idInstitucion",
            "in": "path",
            "required": true,
            "type": "integer",
            "format": "int32"
          }
        ],
        "responses": {
          "200": {
            "description": "Success",
            "schema": { "$ref": "#/definitions/SaludPlusAPI.DataBase.Models.FacturacionEntidades" }
          }
        }
      }
    },
    "/api/general/ListaDepartamentos": {
      "get": {
        "tags": [ "General" ],
        "summary": "Listado de los departamentos de Colombia",
        "operationId": "ListaDepartamentos",
        "consumes": [],
        "produces": [ "application/json", "application/xml" ],
        "parameters": [],
        "responses": {
          "200": {
            "description": "Success",
            "schema": {
              "uniqueItems": false,
              "type": "array",
              "items": { "$ref": "#/definitions/SaludPlusAPI.DataBase.Models.GnDepartamento" }
            }
          }
        }
      }
    },
    "/api/general/departamento/{id}": {
      "get": {
        "tags": [ "General" ],
        "summary": "Obtener un departamento por su Id",
        "operationId": "ObtenerDepartamento",
        "consumes": [],
        "produces": [ "application/json", "application/xml" ],
        "parameters": [
          {
            "name": "id",
            "in": "path",
            "required": true,
            "type": "integer",
            "format": "int32"
          }
        ],
        "responses": {
          "200": {
            "description": "Success",
            "schema": { "$ref": "#/definitions/SaludPlusAPI.DataBase.Models.GnDepartamento" }
          }
        }
      }
    },
    "/api/general/ListaCiudades": {
      "get": {
        "tags": [ "General" ],
        "summary": "Listado de las ciudades de Colombia",
        "operationId": "ListaCiudades",
        "consumes": [],
        "produces": [ "application/json", "application/xml" ],
        "parameters": [],
        "responses": {
          "200": {
            "description": "Success",
            "schema": {
              "uniqueItems": false,
              "type": "array",
              "items": { "$ref": "#/definitions/SaludPlusAPI.DataBase.Models.GnCiudad" }
            }
          }
        }
      }
    },
    "/api/general/ciudades/{IdCiudad}/{DepartamentoId}": {
      "get": {
        "tags": [ "General" ],
        "summary": "Obtener una ciudad por su id y departamento Id",
        "operationId": "ObtenerCiudad",
        "consumes": [],
        "produces": [ "application/json", "application/xml" ],
        "parameters": [
          {
            "name": "IdCiudad",
            "in": "path",
            "required": true,
            "type": "integer",
            "format": "int32"
          },
          {
            "name": "DepartamentoId",
            "in": "path",
            "required": true,
            "type": "integer",
            "format": "int32"
          }
        ],
        "responses": {
          "200": {
            "description": "Success",
            "schema": { "$ref": "#/definitions/SaludPlusAPI.DataBase.Models.GnCiudad" }
          }
        }
      }
    },
    "/api/general/ListaCiudadesDepartamento/{DepartamentoId}": {
      "get": {
        "tags": [ "General" ],
        "summary": "Listado de las ciudades de un departamento",
        "operationId": "ListaCiudadesDepartamento",
        "consumes": [],
        "produces": [ "application/json", "application/xml" ],
        "parameters": [
          {
            "name": "DepartamentoId",
            "in": "path",
            "required": true,
            "type": "integer",
            "format": "int32"
          }
        ],
        "responses": {
          "200": {
            "description": "Success",
            "schema": {
              "uniqueItems": false,
              "type": "array",
              "items": { "$ref": "#/definitions/SaludPlusAPI.DataBase.Models.GnCiudad" }
            }
          }
        }
      }
    },
    "/api/instituciones": {
      "get": {
        "tags": [ "Instituciones" ],
        "summary": "Obtener las instituciones",
        "operationId": "ListadoPorUsuario",
        "consumes": [],
        "produces": [ "application/json", "application/xml" ],
        "parameters": [],
        "responses": {
          "200": {
            "description": "Success",
            "schema": {
              "uniqueItems": false,
              "type": "array",
              "items": { "$ref": "#/definitions/SaludPlusAPI.DataBase.Models.Instituciones" }
            }
          }
        }
      }
    },
    "/api/instituciones/{institucion_id}": {
      "get": {
        "tags": [ "Instituciones" ],
        "summary": "Obtener institución por id",
        "operationId": "ListadoPorInstitucion",
        "consumes": [],
        "produces": [ "application/json", "application/xml" ],
        "parameters": [
          {
            "name": "institucion_id",
            "in": "path",
            "description": "",
            "required": true,
            "type": "integer",
            "format": "int32"
          }
        ],
        "responses": {
          "200": {
            "description": "Success",
            "schema": { "$ref": "#/definitions/SaludPlusAPI.DataBase.Models.LPerfil" }
          }
        }
      }
    },
    "/api/instituciones/config/{institucion_id}": {
      "get": {
        "tags": [ "Instituciones" ],
        "summary": "Obtener configuracion de una institución",
        "operationId": "obtenerConfiguracionInstitucion",
        "consumes": [],
        "produces": [ "application/json", "application/xml" ],
        "parameters": [
          {
            "name": "institucion_id",
            "in": "path",
            "description": "",
            "required": true,
            "type": "integer",
            "format": "int32"
          }
        ],
        "responses": {
          "200": {
            "description": "Success",
            "schema": { "$ref": "#/definitions/SaludPlusAPI.DataBase.Models.ConfInstitucion" }
          }
        }
      }
    },
    "/api/pacientes/ListaSexos": {
      "get": {
        "tags": [ "Pacientes" ],
        "summary": "Listado de sexos",
        "operationId": "ListaSexos",
        "consumes": [],
        "produces": [ "application/json", "application/xml" ],
        "parameters": [],
        "responses": {
          "200": {
            "description": "Success",
            "schema": {
              "uniqueItems": false,
              "type": "array",
              "items": { "$ref": "#/definitions/SaludPlusAPI.DataBase.Models.Sexos" }
            }
          }
        }
      }
    },
    "/api/pacientes/ListaTiposDocumentos": {
      "get": {
        "tags": [ "Pacientes" ],
        "summary": "Listado de los tipos de documentos",
        "operationId": "ListaTiposDocumentos",
        "consumes": [],
        "produces": [ "application/json", "application/xml" ],
        "parameters": [],
        "responses": {
          "200": {
            "description": "Success",
            "schema": {
              "uniqueItems": false,
              "type": "array",
              "items": { "$ref": "#/definitions/SaludPlusAPI.Models.Facturacion.TipoDocumentos" }
            }
          }
        }
      }
    },
    "/api/pacientes/ListaEstadoPaciente": {
      "get": {
        "tags": [ "Pacientes" ],
        "summary": "Listado de los estados de un paciente",
        "operationId": "ListaEstadoPaciente",
        "consumes": [],
        "produces": [ "application/json", "application/xml" ],
        "parameters": [],
        "responses": {
          "200": {
            "description": "Success",
            "schema": {
              "uniqueItems": false,
              "type": "array",
              "items": { "$ref": "#/definitions/SaludPlusAPI.Models.Facturacion.EstadoPaciente" }
            }
          }
        }
      }
    },
    "/api/pacientes/ObtenerEstadoPaciente/{idEstadoPaciente}": {
      "get": {
        "tags": [ "Pacientes" ],
        "summary": "Obtener un estado de paciente",
        "operationId": "ObtenerEstadoPaciente",
        "consumes": [],
        "produces": [ "application/json", "application/xml" ],
        "parameters": [
          {
            "name": "idEstadoPaciente",
            "in": "path",
            "required": true,
            "type": "integer",
            "format": "int32"
          }
        ],
        "responses": {
          "200": {
            "description": "Success",
            "schema": { "$ref": "#/definitions/SaludPlusAPI.Models.Facturacion.EstadoPaciente" }
          }
        }
      }
    },
    "/api/pacientes/ListaEstratos": {
      "get": {
        "tags": [ "Pacientes" ],
        "summary": "Listado de estratos",
        "operationId": "ListaEstratos",
        "consumes": [],
        "produces": [ "application/json", "application/xml" ],
        "parameters": [],
        "responses": {
          "200": {
            "description": "Success",
            "schema": {
              "uniqueItems": false,
              "type": "array",
              "items": { "$ref": "#/definitions/SaludPlusAPI.DataBase.Models.Estratos" }
            }
          }
        }
      }
    },
    "/api/pacientes/Estrato/{idEstrato}": {
      "get": {
        "tags": [ "Pacientes" ],
        "summary": "Obtener un estrato por su id",
        "operationId": "ObtenerEstrato",
        "consumes": [],
        "produces": [ "application/json", "application/xml" ],
        "parameters": [
          {
            "name": "idEstrato",
            "in": "path",
            "required": true,
            "type": "integer",
            "format": "int32"
          }
        ],
        "responses": {
          "200": {
            "description": "Success",
            "schema": { "$ref": "#/definitions/SaludPlusAPI.DataBase.Models.Estratos" }
          }
        }
      }
    },
    "/api/pacientes/ListaZonasResidencia": {
      "get": {
        "tags": [ "Pacientes" ],
        "summary": "Listado de zonas de residencia",
        "operationId": "ListaZonasResidencia",
        "consumes": [],
        "produces": [ "application/json", "application/xml" ],
        "parameters": [],
        "responses": {
          "200": {
            "description": "Success",
            "schema": {
              "uniqueItems": false,
              "type": "array",
              "items": { "$ref": "#/definitions/SaludPlusAPI.DataBase.Models.FacturacionZonasResidencia" }
            }
          }
        }
      }
    },
    "/api/pacientes/ZonaResidencia/{idZonaResidencia}": {
      "get": {
        "tags": [ "Pacientes" ],
        "summary": "Obtener una zona de residencia por su id",
        "operationId": "ObtenerZonaResidencia",
        "consumes": [],
        "produces": [ "application/json", "application/xml" ],
        "parameters": [
          {
            "name": "idZonaResidencia",
            "in": "path",
            "required": true,
            "type": "integer",
            "format": "int32"
          }
        ],
        "responses": {
          "200": {
            "description": "Success",
            "schema": { "$ref": "#/definitions/SaludPlusAPI.DataBase.Models.FacturacionZonasResidencia" }
          }
        }
      }
    },
    "/api/pacientes/ListaTiposPacientes": {
      "get": {
        "tags": [ "Pacientes" ],
        "summary": "Listado de tipos de pacientes",
        "operationId": "ListaTiposPacientes",
        "consumes": [],
        "produces": [ "application/json", "application/xml" ],
        "parameters": [],
        "responses": {
          "200": {
            "description": "Success",
            "schema": {
              "uniqueItems": false,
              "type": "array",
              "items": { "$ref": "#/definitions/SaludPlusAPI.DataBase.Models.FacturacionPacientesTipos" }
            }
          }
        }
      }
    },
    "/api/pacientes/TipoPaciente/{idTipoPaciente}": {
      "get": {
        "tags": [ "Pacientes" ],
        "summary": "Obtener un tipo de paciente por su id",
        "operationId": "ObteneTipoPaciente",
        "consumes": [],
        "produces": [ "application/json", "application/xml" ],
        "parameters": [
          {
            "name": "idTipoPaciente",
            "in": "path",
            "required": true,
            "type": "integer",
            "format": "int32"
          }
        ],
        "responses": {
          "200": {
            "description": "Success",
            "schema": { "$ref": "#/definitions/SaludPlusAPI.DataBase.Models.FacturacionPacientesTipos" }
          }
        }
      }
    },
    "/api/pacientes/ListaTiposAfiliacion": {
      "get": {
        "tags": [ "Pacientes" ],
        "summary": "Listado de tipos de afiliacion",
        "operationId": "ListaTiposAfiliacion",
        "consumes": [],
        "produces": [ "application/json", "application/xml" ],
        "parameters": [],
        "responses": {
          "200": {
            "description": "Success",
            "schema": {
              "uniqueItems": false,
              "type": "array",
              "items": { "$ref": "#/definitions/SaludPlusAPI.DataBase.Models.FacturacionAfiliacionTipo" }
            }
          }
        }
      }
    },
    "/api/pacientes/TipoAfiliacion/{idTipoAfiliacion}": {
      "get": {
        "tags": [ "Pacientes" ],
        "summary": "Obtener un tipo de afiliacion por su id",
        "operationId": "ObteneTipoAfiliacion",
        "consumes": [],
        "produces": [ "application/json", "application/xml" ],
        "parameters": [
          {
            "name": "idTipoAfiliacion",
            "in": "path",
            "required": true,
            "type": "integer",
            "format": "int32"
          }
        ],
        "responses": {
          "200": {
            "description": "Success",
            "schema": { "$ref": "#/definitions/SaludPlusAPI.DataBase.Models.FacturacionPacientesTipos" }
          }
        }
      }
    },
    "/api/pacientes/ListaDiscapacidades": {
      "get": {
        "tags": [ "Pacientes" ],
        "summary": "Listado de discapacidades",
        "operationId": "ListaDiscapacidades",
        "consumes": [],
        "produces": [ "application/json", "application/xml" ],
        "parameters": [],
        "responses": {
          "200": {
            "description": "Success",
            "schema": {
              "uniqueItems": false,
              "type": "array",
              "items": { "$ref": "#/definitions/SaludPlusAPI.DataBase.Models.FacturacionDiscapacidades" }
            }
          }
        }
      }
    },
    "/api/pacientes/Discapacidad/{idDiscapacidad}": {
      "get": {
        "tags": [ "Pacientes" ],
        "summary": "Obtener una discapacidad  por su id",
        "operationId": "_",
        "consumes": [],
        "produces": [ "application/json", "application/xml" ],
        "parameters": [
          {
            "name": "idDiscapacidad",
            "in": "path",
            "required": true,
            "type": "integer",
            "format": "int32"
          }
        ],
        "responses": {
          "200": {
            "description": "Success",
            "schema": { "$ref": "#/definitions/SaludPlusAPI.DataBase.Models.FacturacionDiscapacidades" }
          }
        }
      }
    },
    "/api/pacientes/ListaOcupaciones": {
      "get": {
        "tags": [ "Pacientes" ],
        "summary": "Listado de ocupaciones",
        "operationId": "ListaOcupaciones",
        "consumes": [],
        "produces": [ "application/json", "application/xml" ],
        "parameters": [],
        "responses": {
          "200": {
            "description": "Success",
            "schema": {
              "uniqueItems": false,
              "type": "array",
              "items": { "$ref": "#/definitions/SaludPlusAPI.DataBase.Models.FacturacionOcupaciones" }
            }
          }
        }
      }
    },
    "/api/pacientes/Ocupacion/{idOcupacion}": {
      "get": {
        "tags": [ "Pacientes" ],
        "summary": "Obtener una ocupacion  por su id",
        "operationId": "Ocupacion",
        "consumes": [],
        "produces": [ "application/json", "application/xml" ],
        "parameters": [
          {
            "name": "idOcupacion",
            "in": "path",
            "required": true,
            "type": "string"
          }
        ],
        "responses": {
          "200": {
            "description": "Success",
            "schema": { "$ref": "#/definitions/SaludPlusAPI.DataBase.Models.FacturacionOcupaciones" }
          }
        }
      }
    },
    "/api/pacientes/ListaGruposEtnicos": {
      "get": {
        "tags": [ "Pacientes" ],
        "summary": "Listado de grupos etnicos",
        "operationId": "ListaGruposEtnicos",
        "consumes": [],
        "produces": [ "application/json", "application/xml" ],
        "parameters": [],
        "responses": {
          "200": {
            "description": "Success",
            "schema": {
              "uniqueItems": false,
              "type": "array",
              "items": { "$ref": "#/definitions/SaludPlusAPI.DataBase.Models.GruposEtnicos" }
            }
          }
        }
      }
    },
    "/api/pacientes/GrupoEtnico/{idGrupoEtnico}": {
      "get": {
        "tags": [ "Pacientes" ],
        "summary": "Obtener un grupo etnico por su id",
        "operationId": "GrupoEtnico",
        "consumes": [],
        "produces": [ "application/json", "application/xml" ],
        "parameters": [
          {
            "name": "idGrupoEtnico",
            "in": "path",
            "required": true,
            "type": "integer",
            "format": "int32"
          }
        ],
        "responses": {
          "200": {
            "description": "Success",
            "schema": { "$ref": "#/definitions/SaludPlusAPI.DataBase.Models.GruposEtnicos" }
          }
        }
      }
    },
    "/api/pacientes/{idPaciente}/{idInstitucion}": {
      "get": {
        "tags": [ "Pacientes" ],
        "summary": "Obtener un paciente por su id",
        "operationId": "Paciente",
        "consumes": [],
        "produces": [ "application/json", "application/xml" ],
        "parameters": [
          {
            "name": "idPaciente",
            "in": "path",
            "required": true,
            "type": "integer",
            "format": "int32"
          },
          {
            "name": "idInstitucion",
            "in": "path",
            "required": true,
            "type": "integer",
            "format": "int32"
          }
        ],
        "responses": {
          "200": {
            "description": "Success",
            "schema": { "$ref": "#/definitions/SaludPlusAPI.DataBase.Models.Pacientes" }
          }
        }
      }
    },
    "/api/pacientes": {
      "post": {
        "tags": [ "Pacientes" ],
        "summary": "Insertar un paciente",
        "operationId": "Insertar",
        "consumes": [ "application/json-patch+json", "application/json", "text/json", "application/*+json" ],
        "produces": [ "application/json", "application/xml" ],
        "parameters": [
          {
            "name": "paciente",
            "in": "body",
            "required": false,
            "schema": { "$ref": "#/definitions/SaludPlusAPI.DataBase.Models.Pacientes" }
          }
        ],
        "responses": {
          "200": {
            "description": "Success",
            "schema": { "$ref": "#/definitions/SaludPlusAPI.Models.RequestResult" }
          }
        }
      }
    },
    "/api/perfiles": {
      "get": {
        "tags": [ "Perfiles" ],
        "summary": "Listado de los perfiles de un usuario",
        "operationId": "ListadoPorUsuario",
        "consumes": [],
        "produces": [ "application/json", "application/xml" ],
        "parameters": [],
        "responses": {
          "200": {
            "description": "Success",
            "schema": {
              "uniqueItems": false,
              "type": "array",
              "items": { "$ref": "#/definitions/SaludPlusAPI.DataBase.Models.LPerfil" }
            }
          }
        }
      }
    },
    "/api/perfiles/{perfil_id}": {
      "get": {
        "tags": [ "Perfiles" ],
        "summary": "Obtener perfil por Id",
        "operationId": "ObtenerPerfil",
        "consumes": [],
        "produces": [ "application/json", "application/xml" ],
        "parameters": [
          {
            "name": "perfil_id",
            "in": "path",
            "description": "Id de perfil",
            "required": true,
            "type": "integer",
            "format": "int32"
          }
        ],
        "responses": {
          "200": {
            "description": "Success",
            "schema": { "$ref": "#/definitions/SaludPlusAPI.DataBase.Models.LPerfil" }
          }
        }
      }
    },
    "/api/perfiles/instituciones/{institucion_id}": {
      "get": {
        "tags": [ "Perfiles" ],
        "summary": "Listado de los perfiles con respecto a una institución",
        "operationId": "ListadoPorInstitucion",
        "consumes": [],
        "produces": [ "application/json", "application/xml" ],
        "parameters": [
          {
            "name": "institucion_id",
            "in": "path",
            "description": "id de la institución",
            "required": true,
            "type": "integer",
            "format": "int32"
          }
        ],
        "responses": {
          "200": {
            "description": "Success",
            "schema": {
              "uniqueItems": false,
              "type": "array",
              "items": { "$ref": "#/definitions/SaludPlusAPI.DataBase.Models.LPerfil" }
            }
          }
        }
      }
    },
    "/api/recursos": {
      "get": {
        "tags": [ "Recursos" ],
        "summary": "Obtener recursos asignados",
        "operationId": "ListadoRecursosPorUsuario",
        "consumes": [],
        "produces": [ "application/json", "application/xml" ],
        "parameters": [],
        "responses": {
          "200": {
            "description": "Success",
            "schema": {
              "uniqueItems": false,
              "type": "array",
              "items": { "$ref": "#/definitions/SaludPlusAPI.Models.LRecursosExt" }
            }
          }
        }
      }
    },
    "/api/recursos/institucion/{institucion_id}": {
      "get": {
        "tags": [ "Recursos" ],
        "summary": "Obtener recursos asignados por institución",
        "operationId": "ListadoRecursosPorInstitucion",
        "consumes": [],
        "produces": [ "application/json", "application/xml" ],
        "parameters": [
          {
            "name": "institucion_id",
            "in": "path",
            "required": true,
            "type": "integer",
            "format": "int32"
          }
        ],
        "responses": {
          "200": {
            "description": "Success",
            "schema": {
              "uniqueItems": false,
              "type": "array",
              "items": { "$ref": "#/definitions/SaludPlusAPI.Models.LRecursosExt" }
            }
          }
        }
      }
    },
    "/api/recursos/{recurso_id}": {
      "get": {
        "tags": [ "Recursos" ],
        "summary": "Obtener recurso por id",
        "operationId": "ObtenerRecurso",
        "consumes": [],
        "produces": [ "application/json", "application/xml" ],
        "parameters": [
          {
            "name": "recurso_id",
            "in": "path",
            "description": "Id de recurso",
            "required": true,
            "type": "integer",
            "format": "int32"
          }
        ],
        "responses": {
          "200": {
            "description": "Success",
            "schema": { "$ref": "#/definitions/SaludPlusAPI.DataBase.Models.LRecursos" }
          }
        }
      }
    },
    "/api/recursos/perfil/{perfil_id}": {
      "get": {
        "tags": [ "Recursos" ],
        "summary": "Obtener recursos por id de perfil",
        "operationId": "ListadoRecursosPorPerfil",
        "consumes": [],
        "produces": [ "application/json", "application/xml" ],
        "parameters": [
          {
            "name": "perfil_id",
            "in": "path",
            "description": "id de perfil",
            "required": true,
            "type": "integer",
            "format": "int32"
          }
        ],
        "responses": {
          "200": {
            "description": "Success",
            "schema": {
              "uniqueItems": false,
              "type": "array",
              "items": { "$ref": "#/definitions/SaludPlusAPI.Models.LRecursosExt" }
            }
          }
        }
      }
    },
    "/api/sedes/ListaSedes/{idInstitucion}": {
      "get": {
        "tags": [ "Sedes" ],
        "summary": "Listado de sedes",
        "operationId": "ListaSedes",
        "consumes": [],
        "produces": [ "application/json", "application/xml" ],
        "parameters": [
          {
            "name": "idInstitucion",
            "in": "path",
            "required": true,
            "type": "integer",
            "format": "int32"
          }
        ],
        "responses": {
          "200": {
            "description": "Success",
            "schema": {
              "uniqueItems": false,
              "type": "array",
              "items": { "$ref": "#/definitions/SaludPlusAPI.DataBase.Models.Sedes" }
            }
          }
        }
      }
    },
    "/api/sedes/Sede/{idSede}/{idInstitucion}": {
      "get": {
        "tags": [ "Sedes" ],
        "summary": "Obtener una sede por su id y id de la institución",
        "operationId": "ObtenerSede",
        "consumes": [],
        "produces": [ "application/json", "application/xml" ],
        "parameters": [
          {
            "name": "idSede",
            "in": "path",
            "required": true,
            "type": "integer",
            "format": "int32"
          },
          {
            "name": "idInstitucion",
            "in": "path",
            "required": true,
            "type": "integer",
            "format": "int32"
          }
        ],
        "responses": {
          "200": {
            "description": "Success",
            "schema": { "$ref": "#/definitions/SaludPlusAPI.DataBase.Models.FacturacionEntidades" }
          }
        }
      }
    }
  },
  "definitions": {
    "SaludPlusAPI.Models.User": {
      "type": "object",
      "properties": {
        "username": { "type": "string" },
        "password": { "type": "string" }
      }
    },
    "SaludPlusAPI.Models.UserInfo": {
      "type": "object",
      "properties": {
        "id": {
          "format": "int32",
          "type": "integer"
        },
        "nombre": { "type": "string" },
        "usuario": { "type": "string" },
        "estado": { "type": "boolean" },
        "token": { "type": "string" },
        "acceso": { "type": "string" },
        "expiration": {
          "format": "date-time",
          "type": "string"
        },
        "refresh_token": { "type": "string" }
      }
    },
    "SaludPlusAPI.Models.jwt.RefreshToken": {
      "type": "object",
      "properties": {
        "token": { "type": "string" },
        "refreshToken": { "type": "string" }
      }
    },
    "SaludPlusAPI.Models.jwt.RefreshTokenInfo": {
      "type": "object",
      "properties": {
        "expire": {
          "format": "date-time",
          "type": "string"
        },
        "token": { "type": "string" },
        "refreshToken": { "type": "string" }
      }
    },
    "SaludPlusAPI.Models.ChangePassword": {
      "type": "object",
      "properties": {
        "password": { "type": "string" },
        "tokenEmail": { "type": "string" }
      }
    },
    "SaludPlusAPI.Models.LCaracteristicasExt": {
      "type": "object",
      "properties": {
        "caracteristicas": {
          "uniqueItems": false,
          "type": "array",
          "items": { "$ref": "#/definitions/SaludPlusAPI.Models.LCaracteristicasExt" }
        },
        "h": { "type": "string" },
        "idCaracteristica": {
          "format": "int32",
          "type": "integer"
        },
        "nombre": { "type": "string" },
        "descripcion": { "type": "string" },
        "estado": {
          "format": "int32",
          "type": "integer"
        },
        "fechaInicial": {
          "format": "date-time",
          "type": "string"
        },
        "fechaFinal": {
          "format": "date-time",
          "type": "string"
        },
        "fkRecurso": {
          "format": "int32",
          "type": "integer"
        },
        "ubicacionCaracteristica": { "type": "string" },
        "claseGraficaCssCaracteristica": { "type": "string" },
        "controladorCaracteristica": { "type": "string" },
        "funcionCaracteristica": { "type": "string" },
        "ordenAparicionCaracteristica": {
          "format": "int32",
          "type": "integer"
        },
        "estiloCuadro": { "type": "string" },
        "enContruccion": { "type": "boolean" }
      }
    },
    "SaludPlusAPI.DataBase.Models.LCaracteristicas": {
      "type": "object",
      "properties": {
        "idCaracteristica": {
          "format": "int32",
          "type": "integer"
        },
        "nombre": { "type": "string" },
        "descripcion": { "type": "string" },
        "estado": {
          "format": "int32",
          "type": "integer"
        },
        "fechaInicial": {
          "format": "date-time",
          "type": "string"
        },
        "fechaFinal": {
          "format": "date-time",
          "type": "string"
        },
        "fkRecurso": {
          "format": "int32",
          "type": "integer"
        },
        "ubicacionCaracteristica": { "type": "string" },
        "claseGraficaCssCaracteristica": { "type": "string" },
        "controladorCaracteristica": { "type": "string" },
        "funcionCaracteristica": { "type": "string" },
        "ordenAparicionCaracteristica": {
          "format": "int32",
          "type": "integer"
        },
        "estiloCuadro": { "type": "string" },
        "enContruccion": { "type": "boolean" }
      }
    },
    "SaludPlusAPI.DataBase.Models.FacturacionEntidades": {
      "type": "object",
      "properties": {
        "idEntidad": {
          "format": "int32",
          "type": "integer"
        },
        "codigoEntidad": { "type": "string" },
        "nombreEntidad": { "type": "string" },
        "direccionEntidad": { "type": "string" },
        "telefonoEntidad": { "type": "string" },
        "fkDepartamento": {
          "format": "int32",
          "type": "integer"
        },
        "fkCiudad": {
          "format": "int32",
          "type": "integer"
        },
        "nitEntidad": { "type": "string" },
        "digitoVerificacion": {
          "format": "int32",
          "type": "integer"
        },
        "fkInstitucion": {
          "format": "int32",
          "type": "integer"
        }
      }
    },
    "SaludPlusAPI.DataBase.Models.GnDepartamento": {
      "type": "object",
      "properties": {
        "idDepartamento": {
          "format": "int32",
          "type": "integer"
        },
        "descripcionDepartamento": { "type": "string" },
        "codZona": {
          "format": "int32",
          "type": "integer"
        },
        "codIso": { "type": "string" }
      }
    },
    "SaludPlusAPI.DataBase.Models.GnCiudad": {
      "type": "object",
      "properties": {
        "id": {
          "format": "int32",
          "type": "integer"
        },
        "idCiudad": {
          "format": "int32",
          "type": "integer"
        },
        "descripcionCiudad": { "type": "string" },
        "fkDepartamento": {
          "format": "int32",
          "type": "integer"
        }
      }
    },
    "SaludPlusAPI.DataBase.Models.Instituciones": {
      "type": "object",
      "properties": {
        "idInstitucion": {
          "format": "int32",
          "type": "integer"
        },
        "nombreInstitucion": { "type": "string" },
        "direccionInstitucion": { "type": "string" },
        "ciudadInstitucion": {
          "format": "int32",
          "type": "integer"
        },
        "departamentoInstitucion": {
          "format": "int32",
          "type": "integer"
        },
        "telefonoInstitucion": { "type": "string" },
        "nitInstitucion": { "type": "string" },
        "digitoVerificacion": {
          "format": "int32",
          "type": "integer"
        },
        "fechaCreacionInstitucion": {
          "format": "date-time",
          "type": "string"
        },
        "esloganInstitucion": { "type": "string" },
        "estadoInstitucion": { "type": "string" },
        "daneInstitucion": { "type": "string" },
        "emailInstitucion": { "type": "string" },
        "codigoIps": { "type": "string" },
        "fkRegimenPrestador": {
          "format": "int32",
          "type": "integer"
        }
      }
    },
    "SaludPlusAPI.DataBase.Models.LPerfil": {
      "type": "object",
      "properties": {
        "idPerfil": {
          "format": "int32",
          "type": "integer"
        },
        "descripcion": { "type": "string" },
        "nombre": { "type": "string" },
        "fkInstitucion": {
          "format": "int32",
          "type": "integer"
        }
      }
    },
    "SaludPlusAPI.DataBase.Models.ConfInstitucion": {
      "type": "object",
      "properties": {
        "idConfiguracionInstitucion": {
          "format": "int32",
          "type": "integer"
        },
        "passDefecto": { "type": "string" },
        "concecutivoAdmisiones": {
          "format": "int32",
          "type": "integer"
        },
        "concecutivoHistorias": {
          "format": "int32",
          "type": "integer"
        },
        "concecutivoOrdenesMedicas": {
          "format": "int32",
          "type": "integer"
        },
        "concecutivoNotasEnfermeria": {
          "format": "int32",
          "type": "integer"
        },
        "concecutivoEgresos": {
          "format": "int32",
          "type": "integer"
        },
        "concecutivoEvolucionesMedicas": {
          "format": "int32",
          "type": "integer"
        },
        "concecutivoArticulos": {
          "format": "int32",
          "type": "integer"
        },
        "concecutivoInventarioInicial": {
          "format": "int32",
          "type": "integer"
        },
        "concecutivoMovimientoInventario": {
          "format": "int32",
          "type": "integer"
        },
        "concecutivoOrdenCompra": {
          "format": "int32",
          "type": "integer"
        },
        "concecutivoCompra": {
          "format": "int32",
          "type": "integer"
        },
        "concecutivoEntregaArticulos": {
          "format": "int32",
          "type": "integer"
        },
        "concecutivoEntregaArticulosConsultaExterna": {
          "format": "int32",
          "type": "integer"
        },
        "firmaDerecha": {
          "format": "int32",
          "type": "integer"
        },
        "firmaDerechaTratamiento": { "type": "string" },
        "firmaDerechaNombre": { "type": "string" },
        "firmaDerechaTitulo": { "type": "string" },
        "firmaDerechaRutaArchivo": { "type": "string" },
        "firmaIzquierda": {
          "format": "int32",
          "type": "integer"
        },
        "firmaIzquierdaTratamiento": { "type": "string" },
        "firmaIzquierdaNombre": { "type": "string" },
        "firmaIzquierdaTitulo": { "type": "string" },
        "firmaIzquierdaRutaArchivo": { "type": "string" },
        "nombreRepresentanteLegal": { "type": "string" },
        "documentoRepresentanteLegal": { "type": "string" },
        "tratamientoRepresentanteLegal": { "type": "string" },
        "diasDefectoPresentacionTablas": {
          "format": "int32",
          "type": "integer"
        },
        "correoSoporte": { "type": "string" },
        "correoNotificacionesUsuarios": { "type": "string" },
        "correoInstitucionCuentasCobro": { "type": "string" },
        "correoNotificacionesUsuariosPassword": { "type": "string" },
        "camasObligatorias": { "type": "boolean" },
        "concecutivoFacturas": {
          "format": "int32",
          "type": "integer"
        },
        "cerrarNotasEnfermeriaConEgreso": { "type": "boolean" },
        "encabezadoFactura1": { "type": "string" },
        "encabezadoFactura2": { "type": "string" },
        "encabezadoFactura3": { "type": "string" },
        "pieFactura1": { "type": "string" },
        "pieFactura2": { "type": "string" },
        "pieFactura3": { "type": "string" },
        "maximoParaclinicosSinInterpretarEvoluciones": {
          "format": "int32",
          "type": "integer"
        },
        "modificarOrdenesMedicas": { "type": "boolean" },
        "prefijoFactura": { "type": "string" },
        "subfijoFactura": { "type": "string" },
        "generarAdmisionDesdeTriage": { "type": "boolean" },
        "verAcompañante": { "type": "boolean" },
        "verConsultas": { "type": "boolean" },
        "verProcedimientos": { "type": "boolean" },
        "verHospitalizacion": { "type": "boolean" },
        "verEstancias": { "type": "boolean" },
        "verUrgencias": { "type": "boolean" },
        "verMedicamentos": { "type": "boolean" },
        "verInsumos": { "type": "boolean" },
        "verOtrosConceptos": { "type": "boolean" },
        "verRecienNacido": { "type": "boolean" },
        "verPyp": { "type": "boolean" },
        "pagos": {
          "format": "int32",
          "type": "integer"
        },
        "verSedes": { "type": "boolean" },
        "modeloReciboCaja": {
          "format": "int32",
          "type": "integer"
        },
        "modeloRecordatorioCitas": {
          "format": "int32",
          "type": "integer"
        },
        "numeroFacturaAdmisionActivo": { "type": "boolean" },
        "ultimaPanillaPacientesCargada": { "type": "string" },
        "enviarSmsRecordatorioCitas": { "type": "boolean" },
        "fkCuentaContableReciboCaja": {
          "format": "int32",
          "type": "integer"
        },
        "fkCuentaContableCopago": {
          "format": "int32",
          "type": "integer"
        },
        "fkCuentaContableCuotaModeradora": {
          "format": "int32",
          "type": "integer"
        },
        "fkInstitucion": {
          "format": "int32",
          "type": "integer"
        }
      }
    },
    "SaludPlusAPI.DataBase.Models.Sexos": {
      "type": "object",
      "properties": {
        "idSexo": {
          "format": "int32",
          "type": "integer"
        },
        "sexo": { "type": "string" }
      }
    },
    "SaludPlusAPI.Models.Facturacion.TipoDocumentos": {
      "type": "object",
      "properties": {
        "valor": { "type": "string" },
        "nombre": { "type": "string" }
      }
    },
    "SaludPlusAPI.Models.Facturacion.EstadoPaciente": {
      "type": "object",
      "properties": {
        "estado": { "type": "string" },
        "valor": {
          "format": "int32",
          "type": "integer"
        }
      }
    },
    "SaludPlusAPI.DataBase.Models.Estratos": {
      "type": "object",
      "properties": {
        "idEstrato": {
          "format": "int32",
          "type": "integer"
        },
        "nombreEstrato": { "type": "string" }
      }
    },
    "SaludPlusAPI.DataBase.Models.FacturacionZonasResidencia": {
      "type": "object",
      "properties": {
        "idZonaResidencia": {
          "format": "int32",
          "type": "integer"
        },
        "nombreZonaResidencia": { "type": "string" }
      }
    },
    "SaludPlusAPI.DataBase.Models.FacturacionPacientesTipos": {
      "type": "object",
      "properties": {
        "idTipoPaciente": {
          "format": "int32",
          "type": "integer"
        },
        "nombreTipoPaciente": { "type": "string" }
      }
    },
    "SaludPlusAPI.DataBase.Models.FacturacionAfiliacionTipo": {
      "type": "object",
      "properties": {
        "idTipoAfiliacion": {
          "format": "int32",
          "type": "integer"
        },
        "nombreTipoAfiliacion": { "type": "string" },
        "fkTipoPaciente": {
          "format": "int32",
          "type": "integer"
        }
      }
    },
    "SaludPlusAPI.DataBase.Models.FacturacionDiscapacidades": {
      "type": "object",
      "properties": {
        "idDiscapacidad": {
          "format": "int32",
          "type": "integer"
        },
        "nombreDiscapacidad": { "type": "string" }
      }
    },
    "SaludPlusAPI.DataBase.Models.FacturacionOcupaciones": {
      "type": "object",
      "properties": {
        "idOcupacion": { "type": "string" },
        "nombreOcupacion": { "type": "string" },
        "descripcionOcupacion": { "type": "string" }
      }
    },
    "SaludPlusAPI.DataBase.Models.GruposEtnicos": {
      "type": "object",
      "properties": {
        "idGrupoEtnico": {
          "format": "int32",
          "type": "integer"
        },
        "nombreGrupoEtnico": { "type": "string" }
      }
    },
    "SaludPlusAPI.DataBase.Models.Pacientes": {
      "type": "object",
      "properties": {
        "idPaciente": {
          "format": "int32",
          "type": "integer"
        },
        "documentoPaciente": { "type": "string" },
        "tipoDocumentoPaciente": { "type": "string" },
        "nombre1Paciente": { "type": "string" },
        "nombre2Paciente": { "type": "string" },
        "apellido1Paciente": { "type": "string" },
        "apellido2Paciente": { "type": "string" },
        "fechaNacimiento": {
          "format": "date-time",
          "type": "string"
        },
        "fkDepartamento": {
          "format": "int32",
          "type": "integer"
        },
        "fkCiudad": {
          "format": "int32",
          "type": "integer"
        },
        "direccionPaciente": { "type": "string" },
        "telefonoPaciente": { "type": "string" },
        "emailPaciente": { "type": "string" },
        "fkTipoPaciente": {
          "format": "int32",
          "type": "integer"
        },
        "fkTipoAfiliacion": {
          "format": "int32",
          "type": "integer"
        },
        "fkOcupacion": { "type": "string" },
        "fkSexo": {
          "format": "int32",
          "type": "integer"
        },
        "fkZonaResidencia": {
          "format": "int32",
          "type": "integer"
        },
        "documentoAfiliado": { "type": "string" },
        "fkDiscapacidad": {
          "format": "int32",
          "type": "integer"
        },
        "fkEstrato": {
          "format": "int32",
          "type": "integer"
        },
        "fkEntidad": {
          "format": "int32",
          "type": "integer"
        },
        "estado": {
          "format": "int32",
          "type": "integer"
        },
        "fkGrupoEtnico": {
          "format": "int32",
          "type": "integer"
        },
        "fkSede": {
          "format": "int32",
          "type": "integer"
        },
        "fkInstitucion": {
          "format": "int32",
          "type": "integer"
        },
        "triage": { "type": "boolean" },
        "creadoCarga": { "type": "boolean" },
        "pyp": { "type": "boolean" },
        "fechaActualizacion": {
          "format": "date-time",
          "type": "string"
        }
      }
    },
    "SaludPlusAPI.Models.RequestResult": {
      "type": "object",
      "properties": {
        "id": {
          "format": "int32",
          "type": "integer"
        },
        "registros": {
          "format": "int32",
          "type": "integer"
        }
      }
    },
    "SaludPlusAPI.Models.LRecursosExt": {
      "type": "object",
      "properties": {
        "idPerfil": {
          "format": "int32",
          "type": "integer"
        },
        "idInstitucion": {
          "format": "int32",
          "type": "integer"
        },
        "idRecurso": {
          "format": "int32",
          "type": "integer"
        },
        "nombre": { "type": "string" },
        "descripcion": { "type": "string" },
        "activo": { "type": "string" },
        "claseGraficaCssRecursoMenu": { "type": "string" },
        "claseGraficaCssRecursoBotones": { "type": "string" },
        "ordenAparicionRecurso": {
          "format": "int32",
          "type": "integer"
        },
        "enContruccion": { "type": "boolean" }
      }
    },
    "SaludPlusAPI.DataBase.Models.LRecursos": {
      "type": "object",
      "properties": {
        "idRecurso": {
          "format": "int32",
          "type": "integer"
        },
        "nombre": { "type": "string" },
        "descripcion": { "type": "string" },
        "activo": { "type": "string" },
        "claseGraficaCssRecursoMenu": { "type": "string" },
        "claseGraficaCssRecursoBotones": { "type": "string" },
        "ordenAparicionRecurso": {
          "format": "int32",
          "type": "integer"
        },
        "enContruccion": { "type": "boolean" }
      }
    },
    "SaludPlusAPI.DataBase.Models.Sedes": {
      "type": "object",
      "properties": {
        "idSede": {
          "format": "int32",
          "type": "integer"
        },
        "nombreSede": { "type": "string" },
        "direccion": { "type": "string" },
        "telefono": { "type": "string" },
        "fkDepartamento": {
          "format": "int32",
          "type": "integer"
        },
        "fkCiudad": {
          "format": "int32",
          "type": "integer"
        },
        "codigoIps": { "type": "string" },
        "fkInstitucion": {
          "format": "int32",
          "type": "integer"
        }
      }
    }
  },
  "securityDefinitions": {
    "Bearer": {
      "name": "Authorization",
      "in": "header",
      "type": "apiKey",
      "description": "Por favor ingrese 'bearer {token}'"
    }
  },
  "security": [ { "Bearer": [] } ]
}